

reference: ROOT,
	reference, GROUND, Xroot, Yroot, Zroot,
	reference, GROUND, eye,
	reference, GROUND, null,
	reference, GROUND, null;

set: real G = E/(2*(1 + NU));

set: real drod = 0.008;
set: real A = pi*drod^2/4;

set: real Jcm = pi*drod^4/64;

#EA, GAy GAz, GJ, EJy EJz

constitutive law: BEAM_CL, 6,
	linear viscoelastic generic, diag,
		CHORD*METAL_THICK*E, CHORD*METAL_THICK*G, CHORD*METAL_THICK*G, 0.333*METAL_THICK^3*CHORD*G, METAL_THICK^3*CHORD/12*E, METAL_THICK*CHORD^3/12*E,
		proportional, WING_DAMP;
